{
  "key": "group_options",
  "title": "Settings",
  "fields": [
    {
      "key": "field_opt_contact_info",
      "label": "Contact Info",
      "name": "",
      "type": "tab",
      "instructions": "",
      "required": 0,
      "conditional_logic": 0,
      "wrapper": {
        "width": "",
        "class": "",
        "id": ""
      },
      "placement": "left",
      "endpoint": 0
    },
    {
      "key": "field_596fbc65b315e",
      "label": "Address",
      "name": "address",
      "type": "group",
      "instructions": "",
      "required": 0,
      "conditional_logic": 0,
      "wrapper": {
        "width": "",
        "class": "",
        "id": ""
      },
      "layout": "block",
      "sub_fields": [
        {
          "key": "field_58c06a440c018",
          "label": "Street",
          "name": "street",
          "type": "text",
          "instructions": "",
          "required": 0,
          "conditional_logic": 0,
          "wrapper": {
            "width": "50",
            "class": "",
            "id": ""
          },
          "default_value": "",
          "placeholder": "",
          "prepend": "",
          "append": "",
          "maxlength": ""
        },
        {
          "key": "field_58c06a430c017",
          "label": "City",
          "name": "city",
          "type": "text",
          "instructions": "",
          "required": 0,
          "conditional_logic": 0,
          "wrapper": {
            "width": "50",
            "class": "",
            "id": ""
          },
          "default_value": "",
          "placeholder": "",
          "prepend": "",
          "append": "",
          "maxlength": ""
        },
        {
          "key": "field_58c06a420c016",
          "label": "State",
          "name": "state",
          "type": "text",
          "instructions": "",
          "required": 0,
          "conditional_logic": 0,
          "wrapper": {
            "width": "50",
            "class": "",
            "id": ""
          },
          "default_value": "",
          "placeholder": "",
          "prepend": "",
          "append": "",
          "maxlength": ""
        },
        {
          "key": "field_58c06a410c015",
          "label": "Zip Code",
          "name": "zip",
          "type": "text",
          "instructions": "",
          "required": 0,
          "conditional_logic": 0,
          "wrapper": {
            "width": "50",
            "class": "",
            "id": ""
          },
          "default_value": "",
          "placeholder": "",
          "prepend": "",
          "append": "",
          "maxlength": ""
        }
      ]
    },
    {
      "key": "field_58c06a410c014",
      "label": "Phone",
      "name": "phone",
      "type": "text",
      "instructions": "",
      "required": 0,
      "conditional_logic": 0,
      "wrapper": {
        "width": "50",
        "class": "",
        "id": ""
      },
      "default_value": "",
      "placeholder": "",
      "prepend": "",
      "append": "",
      "maxlength": ""
    },
    {
      "key": "field_58c06a400c013",
      "label": "Email",
      "name": "email",
      "type": "email",
      "instructions": "",
      "required": 0,
      "conditional_logic": 0,
      "wrapper": {
        "width": "50",
        "class": "",
        "id": ""
      },
      "default_value": "",
      "placeholder": "",
      "prepend": "",
      "append": ""
    },
    {
      "key": "field_596fbc4eb315d",
      "label": "Social Media Links",
      "name": "",
      "type": "tab",
      "instructions": "",
      "required": 0,
      "conditional_logic": 0,
      "wrapper": {
        "width": "",
        "class": "",
        "id": ""
      },
      "placement": "left",
      "endpoint": 0
    },
    {
      "key": "field_596fbce7bc4a9",
      "label": "Social Media Links",
      "name": "social_media_links",
      "type": "repeater",
      "instructions": "",
      "required": 0,
      "conditional_logic": 0,
      "wrapper": {
        "width": "",
        "class": "",
        "id": ""
      },
      "collapsed": "",
      "min": 0,
      "max": 0,
      "layout": "table",
      "button_label": "Add Link",
      "sub_fields": [
        {
          "key": "field_596fb75035eb2",
          "label": "Site",
          "name": "site",
          "type": "select",
          "instructions": "",
          "required": 0,
          "conditional_logic": 0,
          "wrapper": {
            "width": "50",
            "class": "",
            "id": ""
          },
          "choices": {
            "facebook": "Facebook",
            "google-plus": "Google +",
            "instagram": "Instagram",
            "linkedin": "LinkedIn",
            "pinterest": "Pinterest",
            "tripadvisor": "Trip Advisor",
            "twitter": "Twitter",
            "yelp": "Yelp",
            "youtube": "YouTube"
          },
          "default_value": [],
          "allow_null": 0,
          "multiple": 0,
          "ui": 0,
          "ajax": 0,
          "return_format": "value",
          "placeholder": ""
        },
        {
          "key": "field_596fbcdfbc4a8",
          "label": "Link",
          "name": "link",
          "type": "url",
          "instructions": "",
          "required": 1,
          "conditional_logic": 0,
          "wrapper": {
            "width": "50",
            "class": "",
            "id": ""
          },
          "default_value": "",
          "placeholder": ""
        }
      ]
    }
  ],
  "location": [
    [
      {
        "param": "options_page",
        "operator": "==",
        "value": "options-page"
      }
    ]
  ],
  "menu_order": 0,
  "position": "normal",
  "style": "default",
  "label_placement": "top",
  "instruction_placement": "label",
  "hide_on_screen": "",
  "active": 1,
  "description": "Theme Settings Options Page",
  "modified": 1502747420
}
